{
  "rules": {
    "admins": {
      ".read": "auth != null"
    },
    "leads": {
      ".read": "root.child('admins').child(auth.uid).val() == true",
      ".write": "newData.parent().child('admins').child(auth.uid).val() == true",
      "{{lead}}": {
        ".validate": "newData.hasChildren(['name', 'email'])",
        "name": {
          ".validate": "newData.isString()"
        },
        "email": {
          ".validate": "newData.isString()"
        },
        "tel": {
          ".validate": "newData.isString()"
        },
        "msg": {
          ".validate": "newData.isString()"
        },
        "$other": {
          ".validate": "false"
        },
        ".write": "data.val() == null && auth != null || data.val() != null && newData.val() != null && newData.parent().parent().child('admins').child(auth.uid).val() == true || data.val() != null && newData.val() == null && newData.parent().parent().child('admins').child(auth.uid).val() == true"
      }
    },
    "content": {
      ".read": "auth != null",
      ".write": "newData.parent().child('admins').child(auth.uid).val() == true"
    },
    "media": {
      ".read": "auth != null",
      ".write": "newData.parent().child('admins').child(auth.uid).val() == true"
    }
  }
}
