<?xml version="1.0" encoding="UTF-8" standalone="no"?>
<svg shape-rendering="geometricPrecision" width="148px" height="148px" viewBox="0 0 148 148" version="1.1" xmlns="http://www.w3.org/2000/svg" xmlns:xlink="http://www.w3.org/1999/xlink">
    <!-- Generator: Sketch 41.2 (35397) - http://www.bohemiancoding.com/sketch -->
    <title>Slice 1</title>
    <desc>Created with Sketch.</desc>
    <defs></defs>
    <g id="Page-1" stroke="none" stroke-width="1" fill="none" fill-rule="evenodd">
        <rect id="Rectangle" fill="#fff" x="0" y="0" width="148" height="148"></rect>
        <polygon shape-rendering="geometricPrecision" id="w" fill="blue" points="94.8046875 81.859375 102.46875 37 125.179688 37 107.25 113.078125 87.2109375 113.078125 74.625 67.9375 61.96875 113.078125 41.9296875 113.078125 24 37 46.7109375 37 54.234375 82.9140625 66.328125 37 82.8515625 37"></polygon>
    </g>
</svg>